[{
"projectName": "TEDD Project 1",
"description": "TED Project 1 description",

"testCaseFolder": "/tmp/",
"PTCprojectID": 123,
"PTCdocumentID": 546,

"build": "build_name",
"dataSet": "data_set_name",

"header":[
    { "name":"testINT", "type":"number", "value":"5" },
    { "name":"testINT2", "type":"number", "value":"7" },
    { "name":"testSTRING", "type":"text", "value":"default_value" },
    { "name":"testSTRING2", "type":"text", "value":"default_value2" },
    { "name":"testSTRING3", "type":"text", "value":"default_value3" }
]
}]
